{
    "editor": [
        {
            "icon": "",
            "key": "settings",
            "header": "Settings",
            "disabled": false,
            "fields": [
                {
                    "key": "bgImg",
                    "header": "App Background",
                    "type": "image"
                },
                {
                    "key": "fontName",
                    "header": "App Font Name (Google Fonts)",
                    "type": "text"
                },
                {
                    "key": "firstImage",
                    "header": "First Screen Image",
                    "type": "image"
                },
                {
                    "key": "btnText",
                    "header": "Button Text",
                    "type": "text"
                },
                {
                    "key": "btnBackground",
                    "header": "Button Background",
                    "type": "color"
                },
                {
                    "key": "btnFontColor",
                    "header": "Button Font Color",
                    "type": "color"
                },
                {
                    "key": "clicks",
                    "header": "Clicks Required",
                    "type": "range",
                    "options": {
                        "minValue": 1,
                        "maxValue": 100,
                        "stepSize": "1"
                    }
                },
                {
                    "key": "captionTitle",
                    "header": "Caption Title",
                    "type": "text"
                },
                {
                    "key": "captionColor",
                    "header": "Caption Font color",
                    "type": "color"
                },
                {
                    "key": "secondImage",
                    "header": "Second Screen Image",
                    "type": "image"
                },
                {
                    "key": "secondText",
                    "header": "Second Screen Text",
                    "type": "text"
                },
                {
                    "key": "secondTextColor",
                    "header": "Second Screen Text Color",
                    "type": "color"
                },
                {
                    "key": "sound",
                    "header": "Second Screen Sound",
                    "type": "sound"
                },
                {
                    "key": "soundPlayed",
                    "header": "Sound On/Off",
                    "type": "boolean"
                }
            ]
        }
    ],
    "config": {
        "settings": {
            "bgImg": "https://frontend.apps.playcent.com/17cea82e50d64d8a8bcbe7c98f2ec0d3/assets/astronomy-1867616__340 (1).jpg",
            "fontName": "Cinzel",
            "firstImage": "https://frontend.apps.playcent.com/17cea82e50d64d8a8bcbe7c98f2ec0d3/assets/46b432ca3c9be6da372bd146a5997d79.png_wh860.png",
            "btnText": "Tap Me",
            "btnBackground": "#aae",
            "btnFontColor": "#000",
            "clicks": 5,
            "captionTitle": "See a Surprize",
            "captionColor": "#e7e7e7",
            "secondImage": "https://frontend.apps.playcent.com/17cea82e50d64d8a8bcbe7c98f2ec0d3/assets/Lugia_M02.0.jpeg",
            "secondText": "legendary pokemon",
            "secondTextColor": "#f9f8f8",
            "sound": "https://frontend.apps.playcent.com/17cea82e50d64d8a8bcbe7c98f2ec0d3/assets/end.mp3",
            "soundPlayed": true
        }
    }
}